%YAML 1.1
%TAG !u! tag:unity3d.com,2011:
--- !u!21 &2100000
Material:
  serializedVersion: 6
  m_ObjectHideFlags: 0
  m_CorrespondingSourceObject: {fileID: 0}
  m_PrefabInstance: {fileID: 0}
  m_PrefabAsset: {fileID: 0}
  m_Name: corazon
  m_Shader: {fileID: 4800000, guid: 20b9e6d181a9df74eb308d5af9b56bda, type: 3}
  m_ShaderKeywords: _FLIP_ON
  m_LightmapFlags: 4
  m_EnableInstancingVariants: 0
  m_DoubleSidedGI: 0
  m_CustomRenderQueue: -1
  stringTagMap: {}
  disabledShaderPasses: []
  m_SavedProperties:
    serializedVersion: 3
    m_TexEnvs:
    - _Main_Tex:
        m_Texture: {fileID: 2800000, guid: 3422989f874f81f47802691e66c77fe9, type: 3}
        m_Scale: {x: 1, y: 1}
        m_Offset: {x: 0, y: 0}
    m_Floats:
    - _Cutoff: 0.5
    - _blinks: 0
    - _flip: 1
    - _time_speed: 5
    m_Colors: []
